treatment,biosample,genotype,photoperiod,study_origin,development.stage,lineage,study,genome_source,ecotype,experiment,label,url
,SAMN01057642,wt,LD16:8,HHMI-The Salk Institute for Biological Studies,week 5,,PRJNA169238,immature flower buds,Col-0,SRX156068,SRR516092,/myProcessed/processed/SRR516092.count/SRR516092_CHH.bedGraph.gz
,SAMN01057642,wt,LD16:8,HHMI-The Salk Institute for Biological Studies,week 5,,PRJNA169238,immature flower buds,Col-0,SRX156068,SRR516093,/myProcessed/processed/SRR516093.count/SRR516093_CHH.bedGraph.gz
,SAMN01057642,wt,LD16:8,HHMI-The Salk Institute for Biological Studies,week 5,,PRJNA169238,immature flower buds,Col-0,SRX156068,SRR516094,/myProcessed/processed/SRR516094.count/SRR516094_CHH.bedGraph.gz
,SAMN01057642,wt,LD16:8,HHMI-The Salk Institute for Biological Studies,week 5,,PRJNA169238,immature flower buds,Col-0,SRX156068,SRR516095,/myProcessed/processed/SRR516095.count/SRR516095_CHH.bedGraph.gz
,SAMN01057642,wt,LD16:8,HHMI-The Salk Institute for Biological Studies,week 5,,PRJNA169238,immature flower buds,Col-0,SRX156068,SRR516096,/myProcessed/processed/SRR516096.count/SRR516096_CHH.bedGraph.gz
