treatment,biosample,genotype,photoperiod,study_origin,development.stage,lineage,study,genome_source,ecotype,experiment,label,url
25 mM NaCl,SAMEA3484754,wt,LD16:8,"Max Planck Institute for Developmental Biology, Tuebingen, Germany",adult,P0,PRJEB9076,sperm cell,Col-0,ERX1041525,ERR964562,/myProcessed/processed/ERR964562.count/ERR964562_CpG.bedGraph.gz
25 mM NaCl,SAMEA3484754,wt,LD16:8,"Max Planck Institute for Developmental Biology, Tuebingen, Germany",adult,P0,PRJEB9076,sperm cell,Col-0,ERX1041527,ERR964564,/myProcessed/processed/ERR964564.count/ERR964564_CpG.bedGraph.gz
25 mM NaCl,SAMEA3484754,wt,LD16:8,"Max Planck Institute for Developmental Biology, Tuebingen, Germany",adult,P0,PRJEB9076,sperm cell,Col-0,ERX1041528,ERR964565,/myProcessed/processed/ERR964565.count/ERR964565_CpG.bedGraph.gz
25 mM NaCl,SAMEA3484754,wt,LD16:8,"Max Planck Institute for Developmental Biology, Tuebingen, Germany",adult,P0,PRJEB9076,sperm cell,Col-0,ERX1041530,ERR964567,/myProcessed/processed/ERR964567.count/ERR964567_CpG.bedGraph.gz
75 mM NaCl,SAMEA3484756,wt,LD16:8,"Max Planck Institute for Developmental Biology, Tuebingen, Germany",adult,P0,PRJEB9076,sperm cell,Col-0,ERX1041533,ERR964570,/myProcessed/processed/ERR964570.count/ERR964570_CpG.bedGraph.gz
75 mM NaCl,SAMEA3484756,wt,LD16:8,"Max Planck Institute for Developmental Biology, Tuebingen, Germany",adult,P0,PRJEB9076,sperm cell,Col-0,ERX1041536,ERR964573,/myProcessed/processed/ERR964573.count/ERR964573_CpG.bedGraph.gz
75 mM NaCl,SAMEA3484756,wt,LD16:8,"Max Planck Institute for Developmental Biology, Tuebingen, Germany",adult,P0,PRJEB9076,sperm cell,Col-0,ERX1041539,ERR964576,/myProcessed/processed/ERR964576.count/ERR964576_CpG.bedGraph.gz
75 mM NaCl,SAMEA3484756,wt,LD16:8,"Max Planck Institute for Developmental Biology, Tuebingen, Germany",adult,P0,PRJEB9076,sperm cell,Col-0,ERX1041540,ERR964577,/myProcessed/processed/ERR964577.count/ERR964577_CpG.bedGraph.gz
NaCl control,SAMEA3484752,wt,LD16:8,"Max Planck Institute for Developmental Biology, Tuebingen, Germany",adult,P0,PRJEB9076,sperm cell,Col-0,ERX1041543,ERR964580,/myProcessed/processed/ERR964580.count/ERR964580_CpG.bedGraph.gz
NaCl control,SAMEA3484752,wt,LD16:8,"Max Planck Institute for Developmental Biology, Tuebingen, Germany",adult,P0,PRJEB9076,sperm cell,Col-0,ERX1041545,ERR964582,/myProcessed/processed/ERR964582.count/ERR964582_CpG.bedGraph.gz
NaCl control,SAMEA3484752,wt,LD16:8,"Max Planck Institute for Developmental Biology, Tuebingen, Germany",adult,P0,PRJEB9076,sperm cell,Col-0,ERX1041547,ERR964584,/myProcessed/processed/ERR964584.count/ERR964584_CpG.bedGraph.gz
,SAMN01057769,wt,,"Daniel Zilberman, Plant and Microbial Biology, University of California at Berkeley",,,PRJNA169395,sperm cell,Col-0,SRX156133,SRR516175,/myProcessed/processed/SRR516175.count/SRR516175_CpG.bedGraph.gz
,SAMN01057769,wt,,"Daniel Zilberman, Plant and Microbial Biology, University of California at Berkeley",,,PRJNA169395,sperm cell,Col-0,SRX156133,SRR516177,/myProcessed/processed/SRR516177.count/SRR516177_CpG.bedGraph.gz
,SAMN01141766,wt,,"Martienssen, Delbruck Bldg., Cold Spring Harbor Laboratory",,,PRJNA174185,sperm cell,Col-0,SRX181499,SRR548294,/myProcessed/processed/SRR548294.count/SRR548294_CpG.bedGraph.gz
