treatment,biosample,genotype,photoperiod,study_origin,development.stage,lineage,study,genome_source,ecotype,experiment,label,url
,SAMN02422663,wt,,"Plant Sciences, Cold Spring Harbor Laboratory",stage 9-12,,PRJNA229991,inflorescence,Col-0,SRX384340,SRR1039503,/myProcessed/processed/SRR1039503.count/SRR1039503_CHG.bedGraph.gz
,SAMN03981858,wt,,"Department of Molecular, Cell and Developmental Biology, University of California, Los Angeles",flowering,,PRJNA261075,inflorescence,Col-0,SRX1142675,SRR2155683,/myProcessed/processed/SRR2155683.count/SRR2155683_CHG.bedGraph.gz
,SAMN03981859,wt,,"Department of Molecular, Cell and Developmental Biology, University of California, Los Angeles",flowering,,PRJNA261075,inflorescence,Col-0,SRX1142676,SRR2155684,/myProcessed/processed/SRR2155684.count/SRR2155684_CHG.bedGraph.gz
